7 The tidyverse | Introduction to R
…
all participants with systolic blood pressure over 160, or diastolic blood pressure over 100;

the first three columns of data;

all variables whose name ends in “bp”;

as for 3, but now sorted by decreasing age.

7.2.3 Groupwise data operations

Grouped data As seen in Section @ref{group-stats}, we can use the base R function aggregate to calculate per-group summaries, by specifying the data, the group memberships, and a suitable summary function. dplyr implements this functionality somewhat differently, by adding the grouping information directly to the data, via function group_by, and carrying this grouped data set forward for processing and analysis:

> group_by(salt_ht, sex)
# A tibble: 100 × 6
# Groups:   sex [2]
      ID sex      sbp   dbp saltadd   age
   <int> <fct>  <int> <int> <fct>   <int>
 1  4305 male     110    80 yes        58
 2  6606 female    85    55 no         32
 3  5758 female   196   128 <NA>       53
 4  2265 male     167   112 yes        68
 5  7408 female   145   110 yes        55
 6  2160 female   179   120 no         60
 7  8846 male     111    78 no         59
 8  8202 female   110    70 no         32
 9  9605 male     198   119 yes        63
10  4137 male     171   102 yes        58
# … with 90 more rows
…
